(['D:\\Projects\\bom-combiner\\main_app.py'],
 ['D:\\Projects\\bom-combiner', 'D:\\Projects\\bom-combiner'],
 ['codecs'],
 ['c:\\users\\viditk\\appdata\\local\\programs\\python\\python39\\lib\\site-packages\\_pyinstaller_hooks_contrib\\hooks\\stdhooks',
  'c:\\users\\viditk\\appdata\\local\\programs\\python\\python39\\lib\\site-packages\\_pyinstaller_hooks_contrib\\hooks\\stdhooks\\__pycache__',
  'c:\\users\\viditk\\appdata\\local\\programs\\python\\python39\\lib\\site-packages\\_pyinstaller_hooks_contrib\\hooks\\rthooks',
  'c:\\users\\viditk\\appdata\\local\\programs\\python\\python39\\lib\\site-packages\\_pyinstaller_hooks_contrib\\hooks\\rthooks\\__pycache__',
  'c:\\users\\viditk\\appdata\\local\\programs\\python\\python39\\lib\\site-packages\\_pyinstaller_hooks_contrib\\hooks'],
 [],
 [],
 False,
 False,
 False,
 '3.9.1 (tags/v3.9.1:1e5d33e, Dec  7 2020, 17:08:21) [MSC v.1927 64 bit '
 '(AMD64)]',
 [('pyi_rth_multiprocessing',
   'C:\\Users\\ViditK\\AppData\\Local\\Programs\\Python\\Python39\\Lib\\site-packages\\PyInstaller\\hooks\\rthooks\\pyi_rth_multiprocessing.py',
   'PYSOURCE'),
  ('pyi_rth_pyqt5',
   'C:\\Users\\ViditK\\AppData\\Local\\Programs\\Python\\Python39\\Lib\\site-packages\\PyInstaller\\hooks\\rthooks\\pyi_rth_pyqt5.py',
   'PYSOURCE'),
  ('main_app', 'D:\\Projects\\bom-combiner\\main_app.py', 'PYSOURCE')],
 [('os',
   'c:\\users\\viditk\\appdata\\local\\programs\\python\\python39\\lib\\os.py',
   'PYMODULE'),
  ('subprocess',
   'c:\\users\\viditk\\appdata\\local\\programs\\python\\python39\\lib\\subprocess.py',
   'PYMODULE'),
  ('selectors',
   'c:\\users\\viditk\\appdata\\local\\programs\\python\\python39\\lib\\selectors.py',
   'PYMODULE'),
  ('contextlib',
   'c:\\users\\viditk\\appdata\\local\\programs\\python\\python39\\lib\\contextlib.py',
   'PYMODULE'),
  ('threading',
   'c:\\users\\viditk\\appdata\\local\\programs\\python\\python39\\lib\\threading.py',
   'PYMODULE'),
  ('_threading_local',
   'c:\\users\\viditk\\appdata\\local\\programs\\python\\python39\\lib\\_threading_local.py',
   'PYMODULE'),
  ('signal',
   'c:\\users\\viditk\\appdata\\local\\programs\\python\\python39\\lib\\signal.py',
   'PYMODULE'),
  ('_strptime',
   'c:\\users\\viditk\\appdata\\local\\programs\\python\\python39\\lib\\_strptime.py',
   'PYMODULE'),
  ('datetime',
   'c:\\users\\viditk\\appdata\\local\\programs\\python\\python39\\lib\\datetime.py',
   'PYMODULE'),
  ('calendar',
   'c:\\users\\viditk\\appdata\\local\\programs\\python\\python39\\lib\\calendar.py',
   'PYMODULE'),
  ('argparse',
   'c:\\users\\viditk\\appdata\\local\\programs\\python\\python39\\lib\\argparse.py',
   'PYMODULE'),
  ('textwrap',
   'c:\\users\\viditk\\appdata\\local\\programs\\python\\python39\\lib\\textwrap.py',
   'PYMODULE'),
  ('shutil',
   'c:\\users\\viditk\\appdata\\local\\programs\\python\\python39\\lib\\shutil.py',
   'PYMODULE'),
  ('zipfile',
   'c:\\users\\viditk\\appdata\\local\\programs\\python\\python39\\lib\\zipfile.py',
   'PYMODULE'),
  ('py_compile',
   'c:\\users\\viditk\\appdata\\local\\programs\\python\\python39\\lib\\py_compile.py',
   'PYMODULE'),
  ('importlib.machinery',
   'c:\\users\\viditk\\appdata\\local\\programs\\python\\python39\\lib\\importlib\\machinery.py',
   'PYMODULE'),
  ('importlib',
   'c:\\users\\viditk\\appdata\\local\\programs\\python\\python39\\lib\\importlib\\__init__.py',
   'PYMODULE'),
  ('importlib._bootstrap',
   'c:\\users\\viditk\\appdata\\local\\programs\\python\\python39\\lib\\importlib\\_bootstrap.py',
   'PYMODULE'),
  ('importlib._bootstrap_external',
   'c:\\users\\viditk\\appdata\\local\\programs\\python\\python39\\lib\\importlib\\_bootstrap_external.py',
   'PYMODULE'),
  ('importlib.metadata',
   'c:\\users\\viditk\\appdata\\local\\programs\\python\\python39\\lib\\importlib\\metadata.py',
   'PYMODULE'),
  ('importlib.abc',
   'c:\\users\\viditk\\appdata\\local\\programs\\python\\python39\\lib\\importlib\\abc.py',
   'PYMODULE'),
  ('typing',
   'c:\\users\\viditk\\appdata\\local\\programs\\python\\python39\\lib\\typing.py',
   'PYMODULE'),
  ('configparser',
   'c:\\users\\viditk\\appdata\\local\\programs\\python\\python39\\lib\\configparser.py',
   'PYMODULE'),
  ('pathlib',
   'c:\\users\\viditk\\appdata\\local\\programs\\python\\python39\\lib\\pathlib.py',
   'PYMODULE'),
  ('urllib.parse',
   'c:\\users\\viditk\\appdata\\local\\programs\\python\\python39\\lib\\urllib\\parse.py',
   'PYMODULE'),
  ('urllib',
   'c:\\users\\viditk\\appdata\\local\\programs\\python\\python39\\lib\\urllib\\__init__.py',
   'PYMODULE'),
  ('email',
   'c:\\users\\viditk\\appdata\\local\\programs\\python\\python39\\lib\\email\\__init__.py',
   'PYMODULE'),
  ('email.parser',
   'c:\\users\\viditk\\appdata\\local\\programs\\python\\python39\\lib\\email\\parser.py',
   'PYMODULE'),
  ('email._policybase',
   'c:\\users\\viditk\\appdata\\local\\programs\\python\\python39\\lib\\email\\_policybase.py',
   'PYMODULE'),
  ('email.utils',
   'c:\\users\\viditk\\appdata\\local\\programs\\python\\python39\\lib\\email\\utils.py',
   'PYMODULE'),
  ('email._parseaddr',
   'c:\\users\\viditk\\appdata\\local\\programs\\python\\python39\\lib\\email\\_parseaddr.py',
   'PYMODULE'),
  ('socket',
   'c:\\users\\viditk\\appdata\\local\\programs\\python\\python39\\lib\\socket.py',
   'PYMODULE'),
  ('random',
   'c:\\users\\viditk\\appdata\\local\\programs\\python\\python39\\lib\\random.py',
   'PYMODULE'),
  ('statistics',
   'c:\\users\\viditk\\appdata\\local\\programs\\python\\python39\\lib\\statistics.py',
   'PYMODULE'),
  ('decimal',
   'c:\\users\\viditk\\appdata\\local\\programs\\python\\python39\\lib\\decimal.py',
   'PYMODULE'),
  ('_pydecimal',
   'c:\\users\\viditk\\appdata\\local\\programs\\python\\python39\\lib\\_pydecimal.py',
   'PYMODULE'),
  ('contextvars',
   'c:\\users\\viditk\\appdata\\local\\programs\\python\\python39\\lib\\contextvars.py',
   'PYMODULE'),
  ('fractions',
   'c:\\users\\viditk\\appdata\\local\\programs\\python\\python39\\lib\\fractions.py',
   'PYMODULE'),
  ('numbers',
   'c:\\users\\viditk\\appdata\\local\\programs\\python\\python39\\lib\\numbers.py',
   'PYMODULE'),
  ('hashlib',
   'c:\\users\\viditk\\appdata\\local\\programs\\python\\python39\\lib\\hashlib.py',
   'PYMODULE'),
  ('logging',
   'c:\\users\\viditk\\appdata\\local\\programs\\python\\python39\\lib\\logging\\__init__.py',
   'PYMODULE'),
  ('pickle',
   'c:\\users\\viditk\\appdata\\local\\programs\\python\\python39\\lib\\pickle.py',
   'PYMODULE'),
  ('pprint',
   'c:\\users\\viditk\\appdata\\local\\programs\\python\\python39\\lib\\pprint.py',
   'PYMODULE'),
  ('doctest',
   'c:\\users\\viditk\\appdata\\local\\programs\\python\\python39\\lib\\doctest.py',
   'PYMODULE'),
  ('unittest',
   'c:\\users\\viditk\\appdata\\local\\programs\\python\\python39\\lib\\unittest\\__init__.py',
   'PYMODULE'),
  ('unittest.async_case',
   'c:\\users\\viditk\\appdata\\local\\programs\\python\\python39\\lib\\unittest\\async_case.py',
   'PYMODULE'),
  ('asyncio',
   'c:\\users\\viditk\\appdata\\local\\programs\\python\\python39\\lib\\asyncio\\__init__.py',
   'PYMODULE'),
  ('asyncio.unix_events',
   'c:\\users\\viditk\\appdata\\local\\programs\\python\\python39\\lib\\asyncio\\unix_events.py',
   'PYMODULE'),
  ('asyncio.log',
   'c:\\users\\viditk\\appdata\\local\\programs\\python\\python39\\lib\\asyncio\\log.py',
   'PYMODULE'),
  ('asyncio.windows_events',
   'c:\\users\\viditk\\appdata\\local\\programs\\python\\python39\\lib\\asyncio\\windows_events.py',
   'PYMODULE'),
  ('asyncio.windows_utils',
   'c:\\users\\viditk\\appdata\\local\\programs\\python\\python39\\lib\\asyncio\\windows_utils.py',
   'PYMODULE'),
  ('tempfile',
   'c:\\users\\viditk\\appdata\\local\\programs\\python\\python39\\lib\\tempfile.py',
   'PYMODULE'),
  ('asyncio.selector_events',
   'c:\\users\\viditk\\appdata\\local\\programs\\python\\python39\\lib\\asyncio\\selector_events.py',
   'PYMODULE'),
  ('ssl',
   'c:\\users\\viditk\\appdata\\local\\programs\\python\\python39\\lib\\ssl.py',
   'PYMODULE'),
  ('base64',
   'c:\\users\\viditk\\appdata\\local\\programs\\python\\python39\\lib\\base64.py',
   'PYMODULE'),
  ('getopt',
   'c:\\users\\viditk\\appdata\\local\\programs\\python\\python39\\lib\\getopt.py',
   'PYMODULE'),
  ('asyncio.proactor_events',
   'c:\\users\\viditk\\appdata\\local\\programs\\python\\python39\\lib\\asyncio\\proactor_events.py',
   'PYMODULE'),
  ('asyncio.base_subprocess',
   'c:\\users\\viditk\\appdata\\local\\programs\\python\\python39\\lib\\asyncio\\base_subprocess.py',
   'PYMODULE'),
  ('asyncio.threads',
   'c:\\users\\viditk\\appdata\\local\\programs\\python\\python39\\lib\\asyncio\\threads.py',
   'PYMODULE'),
  ('asyncio.subprocess',
   'c:\\users\\viditk\\appdata\\local\\programs\\python\\python39\\lib\\asyncio\\subprocess.py',
   'PYMODULE'),
  ('asyncio.streams',
   'c:\\users\\viditk\\appdata\\local\\programs\\python\\python39\\lib\\asyncio\\streams.py',
   'PYMODULE'),
  ('asyncio.queues',
   'c:\\users\\viditk\\appdata\\local\\programs\\python\\python39\\lib\\asyncio\\queues.py',
   'PYMODULE'),
  ('asyncio.runners',
   'c:\\users\\viditk\\appdata\\local\\programs\\python\\python39\\lib\\asyncio\\runners.py',
   'PYMODULE'),
  ('asyncio.events',
   'c:\\users\\viditk\\appdata\\local\\programs\\python\\python39\\lib\\asyncio\\events.py',
   'PYMODULE'),
  ('asyncio.base_events',
   'c:\\users\\viditk\\appdata\\local\\programs\\python\\python39\\lib\\asyncio\\base_events.py',
   'PYMODULE'),
  ('concurrent.futures',
   'c:\\users\\viditk\\appdata\\local\\programs\\python\\python39\\lib\\concurrent\\futures\\__init__.py',
   'PYMODULE'),
  ('concurrent.futures.thread',
   'c:\\users\\viditk\\appdata\\local\\programs\\python\\python39\\lib\\concurrent\\futures\\thread.py',
   'PYMODULE'),
  ('queue',
   'c:\\users\\viditk\\appdata\\local\\programs\\python\\python39\\lib\\queue.py',
   'PYMODULE'),
  ('concurrent.futures.process',
   'c:\\users\\viditk\\appdata\\local\\programs\\python\\python39\\lib\\concurrent\\futures\\process.py',
   'PYMODULE'),
  ('multiprocessing.queues',
   'c:\\users\\viditk\\appdata\\local\\programs\\python\\python39\\lib\\multiprocessing\\queues.py',
   'PYMODULE'),
  ('multiprocessing.synchronize',
   'c:\\users\\viditk\\appdata\\local\\programs\\python\\python39\\lib\\multiprocessing\\synchronize.py',
   'PYMODULE'),
  ('multiprocessing.heap',
   'c:\\users\\viditk\\appdata\\local\\programs\\python\\python39\\lib\\multiprocessing\\heap.py',
   'PYMODULE'),
  ('multiprocessing.resource_tracker',
   'c:\\users\\viditk\\appdata\\local\\programs\\python\\python39\\lib\\multiprocessing\\resource_tracker.py',
   'PYMODULE'),
  ('multiprocessing.spawn',
   'c:\\users\\viditk\\appdata\\local\\programs\\python\\python39\\lib\\multiprocessing\\spawn.py',
   'PYMODULE'),
  ('runpy',
   'c:\\users\\viditk\\appdata\\local\\programs\\python\\python39\\lib\\runpy.py',
   'PYMODULE'),
  ('pkgutil',
   'c:\\users\\viditk\\appdata\\local\\programs\\python\\python39\\lib\\pkgutil.py',
   'PYMODULE'),
  ('zipimport',
   'c:\\users\\viditk\\appdata\\local\\programs\\python\\python39\\lib\\zipimport.py',
   'PYMODULE'),
  ('multiprocessing.process',
   'c:\\users\\viditk\\appdata\\local\\programs\\python\\python39\\lib\\multiprocessing\\process.py',
   'PYMODULE'),
  ('multiprocessing.util',
   'c:\\users\\viditk\\appdata\\local\\programs\\python\\python39\\lib\\multiprocessing\\util.py',
   'PYMODULE'),
  ('multiprocessing.forkserver',
   'c:\\users\\viditk\\appdata\\local\\programs\\python\\python39\\lib\\multiprocessing\\forkserver.py',
   'PYMODULE'),
  ('multiprocessing.context',
   'c:\\users\\viditk\\appdata\\local\\programs\\python\\python39\\lib\\multiprocessing\\context.py',
   'PYMODULE'),
  ('multiprocessing.popen_spawn_win32',
   'c:\\users\\viditk\\appdata\\local\\programs\\python\\python39\\lib\\multiprocessing\\popen_spawn_win32.py',
   'PYMODULE'),
  ('multiprocessing.popen_forkserver',
   'c:\\users\\viditk\\appdata\\local\\programs\\python\\python39\\lib\\multiprocessing\\popen_forkserver.py',
   'PYMODULE'),
  ('multiprocessing.popen_spawn_posix',
   'c:\\users\\viditk\\appdata\\local\\programs\\python\\python39\\lib\\multiprocessing\\popen_spawn_posix.py',
   'PYMODULE'),
  ('multiprocessing.popen_fork',
   'c:\\users\\viditk\\appdata\\local\\programs\\python\\python39\\lib\\multiprocessing\\popen_fork.py',
   'PYMODULE'),
  ('multiprocessing.sharedctypes',
   'c:\\users\\viditk\\appdata\\local\\programs\\python\\python39\\lib\\multiprocessing\\sharedctypes.py',
   'PYMODULE'),
  ('ctypes',
   'c:\\users\\viditk\\appdata\\local\\programs\\python\\python39\\lib\\ctypes\\__init__.py',
   'PYMODULE'),
  ('ctypes._endian',
   'c:\\users\\viditk\\appdata\\local\\programs\\python\\python39\\lib\\ctypes\\_endian.py',
   'PYMODULE'),
  ('multiprocessing.pool',
   'c:\\users\\viditk\\appdata\\local\\programs\\python\\python39\\lib\\multiprocessing\\pool.py',
   'PYMODULE'),
  ('multiprocessing.dummy',
   'c:\\users\\viditk\\appdata\\local\\programs\\python\\python39\\lib\\multiprocessing\\dummy\\__init__.py',
   'PYMODULE'),
  ('multiprocessing.dummy.connection',
   'c:\\users\\viditk\\appdata\\local\\programs\\python\\python39\\lib\\multiprocessing\\dummy\\connection.py',
   'PYMODULE'),
  ('multiprocessing.managers',
   'c:\\users\\viditk\\appdata\\local\\programs\\python\\python39\\lib\\multiprocessing\\managers.py',
   'PYMODULE'),
  ('multiprocessing.shared_memory',
   'c:\\users\\viditk\\appdata\\local\\programs\\python\\python39\\lib\\multiprocessing\\shared_memory.py',
   'PYMODULE'),
  ('secrets',
   'c:\\users\\viditk\\appdata\\local\\programs\\python\\python39\\lib\\secrets.py',
   'PYMODULE'),
  ('hmac',
   'c:\\users\\viditk\\appdata\\local\\programs\\python\\python39\\lib\\hmac.py',
   'PYMODULE'),
  ('multiprocessing.reduction',
   'c:\\users\\viditk\\appdata\\local\\programs\\python\\python39\\lib\\multiprocessing\\reduction.py',
   'PYMODULE'),
  ('multiprocessing.resource_sharer',
   'c:\\users\\viditk\\appdata\\local\\programs\\python\\python39\\lib\\multiprocessing\\resource_sharer.py',
   'PYMODULE'),
  ('multiprocessing.connection',
   'c:\\users\\viditk\\appdata\\local\\programs\\python\\python39\\lib\\multiprocessing\\connection.py',
   'PYMODULE'),
  ('xmlrpc.client',
   'c:\\users\\viditk\\appdata\\local\\programs\\python\\python39\\lib\\xmlrpc\\client.py',
   'PYMODULE'),
  ('xmlrpc',
   'c:\\users\\viditk\\appdata\\local\\programs\\python\\python39\\lib\\xmlrpc\\__init__.py',
   'PYMODULE'),
  ('gzip',
   'c:\\users\\viditk\\appdata\\local\\programs\\python\\python39\\lib\\gzip.py',
   'PYMODULE'),
  ('_compression',
   'c:\\users\\viditk\\appdata\\local\\programs\\python\\python39\\lib\\_compression.py',
   'PYMODULE'),
  ('xml.parsers.expat',
   'c:\\users\\viditk\\appdata\\local\\programs\\python\\python39\\lib\\xml\\parsers\\expat.py',
   'PYMODULE'),
  ('xml.parsers',
   'c:\\users\\viditk\\appdata\\local\\programs\\python\\python39\\lib\\xml\\parsers\\__init__.py',
   'PYMODULE'),
  ('xml',
   'c:\\users\\viditk\\appdata\\local\\programs\\python\\python39\\lib\\xml\\__init__.py',
   'PYMODULE'),
  ('xml.sax.expatreader',
   'c:\\users\\viditk\\appdata\\local\\programs\\python\\python39\\lib\\xml\\sax\\expatreader.py',
   'PYMODULE'),
  ('xml.sax.saxutils',
   'c:\\users\\viditk\\appdata\\local\\programs\\python\\python39\\lib\\xml\\sax\\saxutils.py',
   'PYMODULE'),
  ('urllib.request',
   'c:\\users\\viditk\\appdata\\local\\programs\\python\\python39\\lib\\urllib\\request.py',
   'PYMODULE'),
  ('getpass',
   'c:\\users\\viditk\\appdata\\local\\programs\\python\\python39\\lib\\getpass.py',
   'PYMODULE'),
  ('nturl2path',
   'c:\\users\\viditk\\appdata\\local\\programs\\python\\python39\\lib\\nturl2path.py',
   'PYMODULE'),
  ('ftplib',
   'c:\\users\\viditk\\appdata\\local\\programs\\python\\python39\\lib\\ftplib.py',
   'PYMODULE'),
  ('netrc',
   'c:\\users\\viditk\\appdata\\local\\programs\\python\\python39\\lib\\netrc.py',
   'PYMODULE'),
  ('shlex',
   'c:\\users\\viditk\\appdata\\local\\programs\\python\\python39\\lib\\shlex.py',
   'PYMODULE'),
  ('mimetypes',
   'c:\\users\\viditk\\appdata\\local\\programs\\python\\python39\\lib\\mimetypes.py',
   'PYMODULE'),
  ('http.cookiejar',
   'c:\\users\\viditk\\appdata\\local\\programs\\python\\python39\\lib\\http\\cookiejar.py',
   'PYMODULE'),
  ('http',
   'c:\\users\\viditk\\appdata\\local\\programs\\python\\python39\\lib\\http\\__init__.py',
   'PYMODULE'),
  ('urllib.response',
   'c:\\users\\viditk\\appdata\\local\\programs\\python\\python39\\lib\\urllib\\response.py',
   'PYMODULE'),
  ('urllib.error',
   'c:\\users\\viditk\\appdata\\local\\programs\\python\\python39\\lib\\urllib\\error.py',
   'PYMODULE'),
  ('xml.sax',
   'c:\\users\\viditk\\appdata\\local\\programs\\python\\python39\\lib\\xml\\sax\\__init__.py',
   'PYMODULE'),
  ('xml.sax.handler',
   'c:\\users\\viditk\\appdata\\local\\programs\\python\\python39\\lib\\xml\\sax\\handler.py',
   'PYMODULE'),
  ('xml.sax._exceptions',
   'c:\\users\\viditk\\appdata\\local\\programs\\python\\python39\\lib\\xml\\sax\\_exceptions.py',
   'PYMODULE'),
  ('xml.sax.xmlreader',
   'c:\\users\\viditk\\appdata\\local\\programs\\python\\python39\\lib\\xml\\sax\\xmlreader.py',
   'PYMODULE'),
  ('http.client',
   'c:\\users\\viditk\\appdata\\local\\programs\\python\\python39\\lib\\http\\client.py',
   'PYMODULE'),
  ('email.message',
   'c:\\users\\viditk\\appdata\\local\\programs\\python\\python39\\lib\\email\\message.py',
   'PYMODULE'),
  ('email.policy',
   'c:\\users\\viditk\\appdata\\local\\programs\\python\\python39\\lib\\email\\policy.py',
   'PYMODULE'),
  ('email.contentmanager',
   'c:\\users\\viditk\\appdata\\local\\programs\\python\\python39\\lib\\email\\contentmanager.py',
   'PYMODULE'),
  ('email.quoprimime',
   'c:\\users\\viditk\\appdata\\local\\programs\\python\\python39\\lib\\email\\quoprimime.py',
   'PYMODULE'),
  ('email.headerregistry',
   'c:\\users\\viditk\\appdata\\local\\programs\\python\\python39\\lib\\email\\headerregistry.py',
   'PYMODULE'),
  ('email.iterators',
   'c:\\users\\viditk\\appdata\\local\\programs\\python\\python39\\lib\\email\\iterators.py',
   'PYMODULE'),
  ('email.generator',
   'c:\\users\\viditk\\appdata\\local\\programs\\python\\python39\\lib\\email\\generator.py',
   'PYMODULE'),
  ('email._encoded_words',
   'c:\\users\\viditk\\appdata\\local\\programs\\python\\python39\\lib\\email\\_encoded_words.py',
   'PYMODULE'),
  ('quopri',
   'c:\\users\\viditk\\appdata\\local\\programs\\python\\python39\\lib\\quopri.py',
   'PYMODULE'),
  ('uu',
   'c:\\users\\viditk\\appdata\\local\\programs\\python\\python39\\lib\\uu.py',
   'PYMODULE'),
  ('optparse',
   'c:\\users\\viditk\\appdata\\local\\programs\\python\\python39\\lib\\optparse.py',
   'PYMODULE'),
  ('multiprocessing',
   'c:\\users\\viditk\\appdata\\local\\programs\\python\\python39\\lib\\multiprocessing\\__init__.py',
   'PYMODULE'),
  ('concurrent.futures._base',
   'c:\\users\\viditk\\appdata\\local\\programs\\python\\python39\\lib\\concurrent\\futures\\_base.py',
   'PYMODULE'),
  ('concurrent',
   'c:\\users\\viditk\\appdata\\local\\programs\\python\\python39\\lib\\concurrent\\__init__.py',
   'PYMODULE'),
  ('asyncio.trsock',
   'c:\\users\\viditk\\appdata\\local\\programs\\python\\python39\\lib\\asyncio\\trsock.py',
   'PYMODULE'),
  ('asyncio.staggered',
   'c:\\users\\viditk\\appdata\\local\\programs\\python\\python39\\lib\\asyncio\\staggered.py',
   'PYMODULE'),
  ('asyncio.tasks',
   'c:\\users\\viditk\\appdata\\local\\programs\\python\\python39\\lib\\asyncio\\tasks.py',
   'PYMODULE'),
  ('asyncio.base_tasks',
   'c:\\users\\viditk\\appdata\\local\\programs\\python\\python39\\lib\\asyncio\\base_tasks.py',
   'PYMODULE'),
  ('asyncio.locks',
   'c:\\users\\viditk\\appdata\\local\\programs\\python\\python39\\lib\\asyncio\\locks.py',
   'PYMODULE'),
  ('asyncio.sslproto',
   'c:\\users\\viditk\\appdata\\local\\programs\\python\\python39\\lib\\asyncio\\sslproto.py',
   'PYMODULE'),
  ('asyncio.transports',
   'c:\\users\\viditk\\appdata\\local\\programs\\python\\python39\\lib\\asyncio\\transports.py',
   'PYMODULE'),
  ('asyncio.protocols',
   'c:\\users\\viditk\\appdata\\local\\programs\\python\\python39\\lib\\asyncio\\protocols.py',
   'PYMODULE'),
  ('asyncio.futures',
   'c:\\users\\viditk\\appdata\\local\\programs\\python\\python39\\lib\\asyncio\\futures.py',
   'PYMODULE'),
  ('asyncio.exceptions',
   'c:\\users\\viditk\\appdata\\local\\programs\\python\\python39\\lib\\asyncio\\exceptions.py',
   'PYMODULE'),
  ('asyncio.coroutines',
   'c:\\users\\viditk\\appdata\\local\\programs\\python\\python39\\lib\\asyncio\\coroutines.py',
   'PYMODULE'),
  ('asyncio.base_futures',
   'c:\\users\\viditk\\appdata\\local\\programs\\python\\python39\\lib\\asyncio\\base_futures.py',
   'PYMODULE'),
  ('asyncio.format_helpers',
   'c:\\users\\viditk\\appdata\\local\\programs\\python\\python39\\lib\\asyncio\\format_helpers.py',
   'PYMODULE'),
  ('asyncio.constants',
   'c:\\users\\viditk\\appdata\\local\\programs\\python\\python39\\lib\\asyncio\\constants.py',
   'PYMODULE'),
  ('unittest.signals',
   'c:\\users\\viditk\\appdata\\local\\programs\\python\\python39\\lib\\unittest\\signals.py',
   'PYMODULE'),
  ('unittest.main',
   'c:\\users\\viditk\\appdata\\local\\programs\\python\\python39\\lib\\unittest\\main.py',
   'PYMODULE'),
  ('unittest.runner',
   'c:\\users\\viditk\\appdata\\local\\programs\\python\\python39\\lib\\unittest\\runner.py',
   'PYMODULE'),
  ('unittest.loader',
   'c:\\users\\viditk\\appdata\\local\\programs\\python\\python39\\lib\\unittest\\loader.py',
   'PYMODULE'),
  ('unittest.suite',
   'c:\\users\\viditk\\appdata\\local\\programs\\python\\python39\\lib\\unittest\\suite.py',
   'PYMODULE'),
  ('unittest.case',
   'c:\\users\\viditk\\appdata\\local\\programs\\python\\python39\\lib\\unittest\\case.py',
   'PYMODULE'),
  ('unittest._log',
   'c:\\users\\viditk\\appdata\\local\\programs\\python\\python39\\lib\\unittest\\_log.py',
   'PYMODULE'),
  ('unittest.result',
   'c:\\users\\viditk\\appdata\\local\\programs\\python\\python39\\lib\\unittest\\result.py',
   'PYMODULE'),
  ('unittest.util',
   'c:\\users\\viditk\\appdata\\local\\programs\\python\\python39\\lib\\unittest\\util.py',
   'PYMODULE'),
  ('pdb',
   'c:\\users\\viditk\\appdata\\local\\programs\\python\\python39\\lib\\pdb.py',
   'PYMODULE'),
  ('pydoc',
   'c:\\users\\viditk\\appdata\\local\\programs\\python\\python39\\lib\\pydoc.py',
   'PYMODULE'),
  ('webbrowser',
   'c:\\users\\viditk\\appdata\\local\\programs\\python\\python39\\lib\\webbrowser.py',
   'PYMODULE'),
  ('http.server',
   'c:\\users\\viditk\\appdata\\local\\programs\\python\\python39\\lib\\http\\server.py',
   'PYMODULE'),
  ('socketserver',
   'c:\\users\\viditk\\appdata\\local\\programs\\python\\python39\\lib\\socketserver.py',
   'PYMODULE'),
  ('html',
   'c:\\users\\viditk\\appdata\\local\\programs\\python\\python39\\lib\\html\\__init__.py',
   'PYMODULE'),
  ('html.entities',
   'c:\\users\\viditk\\appdata\\local\\programs\\python\\python39\\lib\\html\\entities.py',
   'PYMODULE'),
  ('pydoc_data.topics',
   'c:\\users\\viditk\\appdata\\local\\programs\\python\\python39\\lib\\pydoc_data\\topics.py',
   'PYMODULE'),
  ('pydoc_data',
   'c:\\users\\viditk\\appdata\\local\\programs\\python\\python39\\lib\\pydoc_data\\__init__.py',
   'PYMODULE'),
  ('tty',
   'c:\\users\\viditk\\appdata\\local\\programs\\python\\python39\\lib\\tty.py',
   'PYMODULE'),
  ('sysconfig',
   'c:\\users\\viditk\\appdata\\local\\programs\\python\\python39\\lib\\sysconfig.py',
   'PYMODULE'),
  ('_aix_support',
   'c:\\users\\viditk\\appdata\\local\\programs\\python\\python39\\lib\\_aix_support.py',
   'PYMODULE'),
  ('_bootsubprocess',
   'c:\\users\\viditk\\appdata\\local\\programs\\python\\python39\\lib\\_bootsubprocess.py',
   'PYMODULE'),
  ('_osx_support',
   'c:\\users\\viditk\\appdata\\local\\programs\\python\\python39\\lib\\_osx_support.py',
   'PYMODULE'),
  ('distutils.log',
   'c:\\users\\viditk\\appdata\\local\\programs\\python\\python39\\lib\\distutils\\log.py',
   'PYMODULE'),
  ('distutils',
   'c:\\users\\viditk\\appdata\\local\\programs\\python\\python39\\lib\\distutils\\__init__.py',
   'PYMODULE'),
  ('distutils.ccompiler',
   'c:\\users\\viditk\\appdata\\local\\programs\\python\\python39\\lib\\distutils\\ccompiler.py',
   'PYMODULE'),
  ('distutils.fancy_getopt',
   'c:\\users\\viditk\\appdata\\local\\programs\\python\\python39\\lib\\distutils\\fancy_getopt.py',
   'PYMODULE'),
  ('distutils.debug',
   'c:\\users\\viditk\\appdata\\local\\programs\\python\\python39\\lib\\distutils\\debug.py',
   'PYMODULE'),
  ('distutils.util',
   'c:\\users\\viditk\\appdata\\local\\programs\\python\\python39\\lib\\distutils\\util.py',
   'PYMODULE'),
  ('distutils.filelist',
   'c:\\users\\viditk\\appdata\\local\\programs\\python\\python39\\lib\\distutils\\filelist.py',
   'PYMODULE'),
  ('distutils.dep_util',
   'c:\\users\\viditk\\appdata\\local\\programs\\python\\python39\\lib\\distutils\\dep_util.py',
   'PYMODULE'),
  ('distutils.dir_util',
   'c:\\users\\viditk\\appdata\\local\\programs\\python\\python39\\lib\\distutils\\dir_util.py',
   'PYMODULE'),
  ('distutils.file_util',
   'c:\\users\\viditk\\appdata\\local\\programs\\python\\python39\\lib\\distutils\\file_util.py',
   'PYMODULE'),
  ('distutils.spawn',
   'c:\\users\\viditk\\appdata\\local\\programs\\python\\python39\\lib\\distutils\\spawn.py',
   'PYMODULE'),
  ('distutils.errors',
   'c:\\users\\viditk\\appdata\\local\\programs\\python\\python39\\lib\\distutils\\errors.py',
   'PYMODULE'),
  ('distutils.sysconfig',
   'c:\\users\\viditk\\appdata\\local\\programs\\python\\python39\\lib\\distutils\\sysconfig.py',
   'PYMODULE'),
  ('distutils.text_file',
   'c:\\users\\viditk\\appdata\\local\\programs\\python\\python39\\lib\\distutils\\text_file.py',
   'PYMODULE'),
  ('platform',
   'c:\\users\\viditk\\appdata\\local\\programs\\python\\python39\\lib\\platform.py',
   'PYMODULE'),
  ('plistlib',
   'c:\\users\\viditk\\appdata\\local\\programs\\python\\python39\\lib\\plistlib.py',
   'PYMODULE'),
  ('glob',
   'c:\\users\\viditk\\appdata\\local\\programs\\python\\python39\\lib\\glob.py',
   'PYMODULE'),
  ('code',
   'c:\\users\\viditk\\appdata\\local\\programs\\python\\python39\\lib\\code.py',
   'PYMODULE'),
  ('codeop',
   'c:\\users\\viditk\\appdata\\local\\programs\\python\\python39\\lib\\codeop.py',
   'PYMODULE'),
  ('dis',
   'c:\\users\\viditk\\appdata\\local\\programs\\python\\python39\\lib\\dis.py',
   'PYMODULE'),
  ('opcode',
   'c:\\users\\viditk\\appdata\\local\\programs\\python\\python39\\lib\\opcode.py',
   'PYMODULE'),
  ('bdb',
   'c:\\users\\viditk\\appdata\\local\\programs\\python\\python39\\lib\\bdb.py',
   'PYMODULE'),
  ('cmd',
   'c:\\users\\viditk\\appdata\\local\\programs\\python\\python39\\lib\\cmd.py',
   'PYMODULE'),
  ('inspect',
   'c:\\users\\viditk\\appdata\\local\\programs\\python\\python39\\lib\\inspect.py',
   'PYMODULE'),
  ('token',
   'c:\\users\\viditk\\appdata\\local\\programs\\python\\python39\\lib\\token.py',
   'PYMODULE'),
  ('ast',
   'c:\\users\\viditk\\appdata\\local\\programs\\python\\python39\\lib\\ast.py',
   'PYMODULE'),
  ('difflib',
   'c:\\users\\viditk\\appdata\\local\\programs\\python\\python39\\lib\\difflib.py',
   'PYMODULE'),
  ('__future__',
   'c:\\users\\viditk\\appdata\\local\\programs\\python\\python39\\lib\\__future__.py',
   'PYMODULE'),
  ('_compat_pickle',
   'c:\\users\\viditk\\appdata\\local\\programs\\python\\python39\\lib\\_compat_pickle.py',
   'PYMODULE'),
  ('string',
   'c:\\users\\viditk\\appdata\\local\\programs\\python\\python39\\lib\\string.py',
   'PYMODULE'),
  ('bisect',
   'c:\\users\\viditk\\appdata\\local\\programs\\python\\python39\\lib\\bisect.py',
   'PYMODULE'),
  ('email.feedparser',
   'c:\\users\\viditk\\appdata\\local\\programs\\python\\python39\\lib\\email\\feedparser.py',
   'PYMODULE'),
  ('email._header_value_parser',
   'c:\\users\\viditk\\appdata\\local\\programs\\python\\python39\\lib\\email\\_header_value_parser.py',
   'PYMODULE'),
  ('email.header',
   'c:\\users\\viditk\\appdata\\local\\programs\\python\\python39\\lib\\email\\header.py',
   'PYMODULE'),
  ('email.base64mime',
   'c:\\users\\viditk\\appdata\\local\\programs\\python\\python39\\lib\\email\\base64mime.py',
   'PYMODULE'),
  ('email.charset',
   'c:\\users\\viditk\\appdata\\local\\programs\\python\\python39\\lib\\email\\charset.py',
   'PYMODULE'),
  ('email.encoders',
   'c:\\users\\viditk\\appdata\\local\\programs\\python\\python39\\lib\\email\\encoders.py',
   'PYMODULE'),
  ('email.errors',
   'c:\\users\\viditk\\appdata\\local\\programs\\python\\python39\\lib\\email\\errors.py',
   'PYMODULE'),
  ('csv',
   'c:\\users\\viditk\\appdata\\local\\programs\\python\\python39\\lib\\csv.py',
   'PYMODULE'),
  ('tokenize',
   'c:\\users\\viditk\\appdata\\local\\programs\\python\\python39\\lib\\tokenize.py',
   'PYMODULE'),
  ('struct',
   'c:\\users\\viditk\\appdata\\local\\programs\\python\\python39\\lib\\struct.py',
   'PYMODULE'),
  ('importlib.util',
   'c:\\users\\viditk\\appdata\\local\\programs\\python\\python39\\lib\\importlib\\util.py',
   'PYMODULE'),
  ('tarfile',
   'c:\\users\\viditk\\appdata\\local\\programs\\python\\python39\\lib\\tarfile.py',
   'PYMODULE'),
  ('lzma',
   'c:\\users\\viditk\\appdata\\local\\programs\\python\\python39\\lib\\lzma.py',
   'PYMODULE'),
  ('bz2',
   'c:\\users\\viditk\\appdata\\local\\programs\\python\\python39\\lib\\bz2.py',
   'PYMODULE'),
  ('fnmatch',
   'c:\\users\\viditk\\appdata\\local\\programs\\python\\python39\\lib\\fnmatch.py',
   'PYMODULE'),
  ('copy',
   'c:\\users\\viditk\\appdata\\local\\programs\\python\\python39\\lib\\copy.py',
   'PYMODULE'),
  ('gettext',
   'c:\\users\\viditk\\appdata\\local\\programs\\python\\python39\\lib\\gettext.py',
   'PYMODULE'),
  ('ntpath',
   'c:\\users\\viditk\\appdata\\local\\programs\\python\\python39\\lib\\ntpath.py',
   'PYMODULE'),
  ('genericpath',
   'c:\\users\\viditk\\appdata\\local\\programs\\python\\python39\\lib\\genericpath.py',
   'PYMODULE'),
  ('posixpath',
   'c:\\users\\viditk\\appdata\\local\\programs\\python\\python39\\lib\\posixpath.py',
   'PYMODULE'),
  ('stat',
   'c:\\users\\viditk\\appdata\\local\\programs\\python\\python39\\lib\\stat.py',
   'PYMODULE'),
  ('stringprep',
   'c:\\users\\viditk\\appdata\\local\\programs\\python\\python39\\lib\\stringprep.py',
   'PYMODULE'),
  ('_py_abc',
   'c:\\users\\viditk\\appdata\\local\\programs\\python\\python39\\lib\\_py_abc.py',
   'PYMODULE'),
  ('tracemalloc',
   'c:\\users\\viditk\\appdata\\local\\programs\\python\\python39\\lib\\tracemalloc.py',
   'PYMODULE'),
  ('main_win_gui_cb',
   'D:\\Projects\\bom-combiner\\main_win_gui_cb.py',
   'PYMODULE'),
  ('main_win_gui_api',
   'D:\\Projects\\bom-combiner\\main_win_gui_api.py',
   'PYMODULE'),
  ('bom_combiner_main_ui',
   'D:\\Projects\\bom-combiner\\bom_combiner_main_ui.py',
   'PYMODULE'),
  ('PyQt5',
   'c:\\users\\viditk\\appdata\\local\\programs\\python\\python39\\lib\\site-packages\\PyQt5\\__init__.py',
   'PYMODULE'),
  ('bom_combiner_routine',
   'D:\\Projects\\bom-combiner\\bom_combiner_routine.py',
   'PYMODULE'),
  ('openpyxl',
   'c:\\users\\viditk\\appdata\\local\\programs\\python\\python39\\lib\\site-packages\\openpyxl\\__init__.py',
   'PYMODULE'),
  ('openpyxl._constants',
   'c:\\users\\viditk\\appdata\\local\\programs\\python\\python39\\lib\\site-packages\\openpyxl\\_constants.py',
   'PYMODULE'),
  ('openpyxl.reader.excel',
   'c:\\users\\viditk\\appdata\\local\\programs\\python\\python39\\lib\\site-packages\\openpyxl\\reader\\excel.py',
   'PYMODULE'),
  ('openpyxl.reader',
   'c:\\users\\viditk\\appdata\\local\\programs\\python\\python39\\lib\\site-packages\\openpyxl\\reader\\__init__.py',
   'PYMODULE'),
  ('openpyxl.reader.drawings',
   'c:\\users\\viditk\\appdata\\local\\programs\\python\\python39\\lib\\site-packages\\openpyxl\\reader\\drawings.py',
   'PYMODULE'),
  ('openpyxl.chart.reader',
   'c:\\users\\viditk\\appdata\\local\\programs\\python\\python39\\lib\\site-packages\\openpyxl\\chart\\reader.py',
   'PYMODULE'),
  ('openpyxl.chart',
   'c:\\users\\viditk\\appdata\\local\\programs\\python\\python39\\lib\\site-packages\\openpyxl\\chart\\__init__.py',
   'PYMODULE'),
  ('openpyxl.chart.reference',
   'c:\\users\\viditk\\appdata\\local\\programs\\python\\python39\\lib\\site-packages\\openpyxl\\chart\\reference.py',
   'PYMODULE'),
  ('openpyxl.utils',
   'c:\\users\\viditk\\appdata\\local\\programs\\python\\python39\\lib\\site-packages\\openpyxl\\utils\\__init__.py',
   'PYMODULE'),
  ('openpyxl.utils.formulas',
   'c:\\users\\viditk\\appdata\\local\\programs\\python\\python39\\lib\\site-packages\\openpyxl\\utils\\formulas.py',
   'PYMODULE'),
  ('openpyxl.utils.cell',
   'c:\\users\\viditk\\appdata\\local\\programs\\python\\python39\\lib\\site-packages\\openpyxl\\utils\\cell.py',
   'PYMODULE'),
  ('openpyxl.worksheet.worksheet',
   'c:\\users\\viditk\\appdata\\local\\programs\\python\\python39\\lib\\site-packages\\openpyxl\\worksheet\\worksheet.py',
   'PYMODULE'),
  ('openpyxl.worksheet',
   'c:\\users\\viditk\\appdata\\local\\programs\\python\\python39\\lib\\site-packages\\openpyxl\\worksheet\\__init__.py',
   'PYMODULE'),
  ('openpyxl.worksheet.scenario',
   'c:\\users\\viditk\\appdata\\local\\programs\\python\\python39\\lib\\site-packages\\openpyxl\\worksheet\\scenario.py',
   'PYMODULE'),
  ('openpyxl.worksheet.pagebreak',
   'c:\\users\\viditk\\appdata\\local\\programs\\python\\python39\\lib\\site-packages\\openpyxl\\worksheet\\pagebreak.py',
   'PYMODULE'),
  ('openpyxl.worksheet.properties',
   'c:\\users\\viditk\\appdata\\local\\programs\\python\\python39\\lib\\site-packages\\openpyxl\\worksheet\\properties.py',
   'PYMODULE'),
  ('openpyxl.styles.colors',
   'c:\\users\\viditk\\appdata\\local\\programs\\python\\python39\\lib\\site-packages\\openpyxl\\styles\\colors.py',
   'PYMODULE'),
  ('openpyxl.styles',
   'c:\\users\\viditk\\appdata\\local\\programs\\python\\python39\\lib\\site-packages\\openpyxl\\styles\\__init__.py',
   'PYMODULE'),
  ('openpyxl.styles.named_styles',
   'c:\\users\\viditk\\appdata\\local\\programs\\python\\python39\\lib\\site-packages\\openpyxl\\styles\\named_styles.py',
   'PYMODULE'),
  ('openpyxl.styles.cell_style',
   'c:\\users\\viditk\\appdata\\local\\programs\\python\\python39\\lib\\site-packages\\openpyxl\\styles\\cell_style.py',
   'PYMODULE'),
  ('openpyxl.utils.indexed_list',
   'c:\\users\\viditk\\appdata\\local\\programs\\python\\python39\\lib\\site-packages\\openpyxl\\utils\\indexed_list.py',
   'PYMODULE'),
  ('openpyxl.descriptors.excel',
   'c:\\users\\viditk\\appdata\\local\\programs\\python\\python39\\lib\\site-packages\\openpyxl\\descriptors\\excel.py',
   'PYMODULE'),
  ('openpyxl.styles.protection',
   'c:\\users\\viditk\\appdata\\local\\programs\\python\\python39\\lib\\site-packages\\openpyxl\\styles\\protection.py',
   'PYMODULE'),
  ('openpyxl.styles.numbers',
   'c:\\users\\viditk\\appdata\\local\\programs\\python\\python39\\lib\\site-packages\\openpyxl\\styles\\numbers.py',
   'PYMODULE'),
  ('openpyxl.styles.fonts',
   'c:\\users\\viditk\\appdata\\local\\programs\\python\\python39\\lib\\site-packages\\openpyxl\\styles\\fonts.py',
   'PYMODULE'),
  ('openpyxl.descriptors.nested',
   'c:\\users\\viditk\\appdata\\local\\programs\\python\\python39\\lib\\site-packages\\openpyxl\\descriptors\\nested.py',
   'PYMODULE'),
  ('openpyxl.descriptors.base',
   'c:\\users\\viditk\\appdata\\local\\programs\\python\\python39\\lib\\site-packages\\openpyxl\\descriptors\\base.py',
   'PYMODULE'),
  ('openpyxl.descriptors.namespace',
   'c:\\users\\viditk\\appdata\\local\\programs\\python\\python39\\lib\\site-packages\\openpyxl\\descriptors\\namespace.py',
   'PYMODULE'),
  ('openpyxl.utils.datetime',
   'c:\\users\\viditk\\appdata\\local\\programs\\python\\python39\\lib\\site-packages\\openpyxl\\utils\\datetime.py',
   'PYMODULE'),
  ('openpyxl.styles.fills',
   'c:\\users\\viditk\\appdata\\local\\programs\\python\\python39\\lib\\site-packages\\openpyxl\\styles\\fills.py',
   'PYMODULE'),
  ('openpyxl.styles.borders',
   'c:\\users\\viditk\\appdata\\local\\programs\\python\\python39\\lib\\site-packages\\openpyxl\\styles\\borders.py',
   'PYMODULE'),
  ('openpyxl.styles.alignment',
   'c:\\users\\viditk\\appdata\\local\\programs\\python\\python39\\lib\\site-packages\\openpyxl\\styles\\alignment.py',
   'PYMODULE'),
  ('openpyxl.descriptors.sequence',
   'c:\\users\\viditk\\appdata\\local\\programs\\python\\python39\\lib\\site-packages\\openpyxl\\descriptors\\sequence.py',
   'PYMODULE'),
  ('openpyxl.worksheet.merge',
   'c:\\users\\viditk\\appdata\\local\\programs\\python\\python39\\lib\\site-packages\\openpyxl\\worksheet\\merge.py',
   'PYMODULE'),
  ('openpyxl.cell.cell',
   'c:\\users\\viditk\\appdata\\local\\programs\\python\\python39\\lib\\site-packages\\openpyxl\\cell\\cell.py',
   'PYMODULE'),
  ('openpyxl.worksheet.hyperlink',
   'c:\\users\\viditk\\appdata\\local\\programs\\python\\python39\\lib\\site-packages\\openpyxl\\worksheet\\hyperlink.py',
   'PYMODULE'),
  ('openpyxl.styles.styleable',
   'c:\\users\\viditk\\appdata\\local\\programs\\python\\python39\\lib\\site-packages\\openpyxl\\styles\\styleable.py',
   'PYMODULE'),
  ('openpyxl.styles.builtins',
   'c:\\users\\viditk\\appdata\\local\\programs\\python\\python39\\lib\\site-packages\\openpyxl\\styles\\builtins.py',
   'PYMODULE'),
  ('openpyxl.styles.proxy',
   'c:\\users\\viditk\\appdata\\local\\programs\\python\\python39\\lib\\site-packages\\openpyxl\\styles\\proxy.py',
   'PYMODULE'),
  ('openpyxl.worksheet.cell_range',
   'c:\\users\\viditk\\appdata\\local\\programs\\python\\python39\\lib\\site-packages\\openpyxl\\worksheet\\cell_range.py',
   'PYMODULE'),
  ('openpyxl.worksheet.views',
   'c:\\users\\viditk\\appdata\\local\\programs\\python\\python39\\lib\\site-packages\\openpyxl\\worksheet\\views.py',
   'PYMODULE'),
  ('openpyxl.worksheet.filters',
   'c:\\users\\viditk\\appdata\\local\\programs\\python\\python39\\lib\\site-packages\\openpyxl\\worksheet\\filters.py',
   'PYMODULE'),
  ('openpyxl.worksheet.protection',
   'c:\\users\\viditk\\appdata\\local\\programs\\python\\python39\\lib\\site-packages\\openpyxl\\worksheet\\protection.py',
   'PYMODULE'),
  ('openpyxl.utils.protection',
   'c:\\users\\viditk\\appdata\\local\\programs\\python\\python39\\lib\\site-packages\\openpyxl\\utils\\protection.py',
   'PYMODULE'),
  ('openpyxl.worksheet.dimensions',
   'c:\\users\\viditk\\appdata\\local\\programs\\python\\python39\\lib\\site-packages\\openpyxl\\worksheet\\dimensions.py',
   'PYMODULE'),
  ('openpyxl.utils.bound_dictionary',
   'c:\\users\\viditk\\appdata\\local\\programs\\python\\python39\\lib\\site-packages\\openpyxl\\utils\\bound_dictionary.py',
   'PYMODULE'),
  ('openpyxl.utils.units',
   'c:\\users\\viditk\\appdata\\local\\programs\\python\\python39\\lib\\site-packages\\openpyxl\\utils\\units.py',
   'PYMODULE'),
  ('openpyxl.worksheet.page',
   'c:\\users\\viditk\\appdata\\local\\programs\\python\\python39\\lib\\site-packages\\openpyxl\\worksheet\\page.py',
   'PYMODULE'),
  ('openpyxl.worksheet.datavalidation',
   'c:\\users\\viditk\\appdata\\local\\programs\\python\\python39\\lib\\site-packages\\openpyxl\\worksheet\\datavalidation.py',
   'PYMODULE'),
  ('openpyxl.formula.translate',
   'c:\\users\\viditk\\appdata\\local\\programs\\python\\python39\\lib\\site-packages\\openpyxl\\formula\\translate.py',
   'PYMODULE'),
  ('openpyxl.formula',
   'c:\\users\\viditk\\appdata\\local\\programs\\python\\python39\\lib\\site-packages\\openpyxl\\formula\\__init__.py',
   'PYMODULE'),
  ('openpyxl.formula.tokenizer',
   'c:\\users\\viditk\\appdata\\local\\programs\\python\\python39\\lib\\site-packages\\openpyxl\\formula\\tokenizer.py',
   'PYMODULE'),
  ('openpyxl.workbook.defined_name',
   'c:\\users\\viditk\\appdata\\local\\programs\\python\\python39\\lib\\site-packages\\openpyxl\\workbook\\defined_name.py',
   'PYMODULE'),
  ('openpyxl.workbook.child',
   'c:\\users\\viditk\\appdata\\local\\programs\\python\\python39\\lib\\site-packages\\openpyxl\\workbook\\child.py',
   'PYMODULE'),
  ('openpyxl.worksheet.header_footer',
   'c:\\users\\viditk\\appdata\\local\\programs\\python\\python39\\lib\\site-packages\\openpyxl\\worksheet\\header_footer.py',
   'PYMODULE'),
  ('openpyxl.utils.escape',
   'c:\\users\\viditk\\appdata\\local\\programs\\python\\python39\\lib\\site-packages\\openpyxl\\utils\\escape.py',
   'PYMODULE'),
  ('openpyxl.formatting.formatting',
   'c:\\users\\viditk\\appdata\\local\\programs\\python\\python39\\lib\\site-packages\\openpyxl\\formatting\\formatting.py',
   'PYMODULE'),
  ('openpyxl.formatting',
   'c:\\users\\viditk\\appdata\\local\\programs\\python\\python39\\lib\\site-packages\\openpyxl\\formatting\\__init__.py',
   'PYMODULE'),
  ('openpyxl.formatting.rule',
   'c:\\users\\viditk\\appdata\\local\\programs\\python\\python39\\lib\\site-packages\\openpyxl\\formatting\\rule.py',
   'PYMODULE'),
  ('openpyxl.styles.differential',
   'c:\\users\\viditk\\appdata\\local\\programs\\python\\python39\\lib\\site-packages\\openpyxl\\styles\\differential.py',
   'PYMODULE'),
  ('openpyxl.compat',
   'c:\\users\\viditk\\appdata\\local\\programs\\python\\python39\\lib\\site-packages\\openpyxl\\compat\\__init__.py',
   'PYMODULE'),
  ('openpyxl.compat.strings',
   'c:\\users\\viditk\\appdata\\local\\programs\\python\\python39\\lib\\site-packages\\openpyxl\\compat\\strings.py',
   'PYMODULE'),
  ('openpyxl.descriptors',
   'c:\\users\\viditk\\appdata\\local\\programs\\python\\python39\\lib\\site-packages\\openpyxl\\descriptors\\__init__.py',
   'PYMODULE'),
  ('openpyxl.descriptors.serialisable',
   'c:\\users\\viditk\\appdata\\local\\programs\\python\\python39\\lib\\site-packages\\openpyxl\\descriptors\\serialisable.py',
   'PYMODULE'),
  ('openpyxl.chart.series_factory',
   'c:\\users\\viditk\\appdata\\local\\programs\\python\\python39\\lib\\site-packages\\openpyxl\\chart\\series_factory.py',
   'PYMODULE'),
  ('openpyxl.chart.series',
   'c:\\users\\viditk\\appdata\\local\\programs\\python\\python39\\lib\\site-packages\\openpyxl\\chart\\series.py',
   'PYMODULE'),
  ('openpyxl.chart.trendline',
   'c:\\users\\viditk\\appdata\\local\\programs\\python\\python39\\lib\\site-packages\\openpyxl\\chart\\trendline.py',
   'PYMODULE'),
  ('openpyxl.chart.layout',
   'c:\\users\\viditk\\appdata\\local\\programs\\python\\python39\\lib\\site-packages\\openpyxl\\chart\\layout.py',
   'PYMODULE'),
  ('openpyxl.chart.text',
   'c:\\users\\viditk\\appdata\\local\\programs\\python\\python39\\lib\\site-packages\\openpyxl\\chart\\text.py',
   'PYMODULE'),
  ('openpyxl.drawing.text',
   'c:\\users\\viditk\\appdata\\local\\programs\\python\\python39\\lib\\site-packages\\openpyxl\\drawing\\text.py',
   'PYMODULE'),
  ('openpyxl.drawing',
   'c:\\users\\viditk\\appdata\\local\\programs\\python\\python39\\lib\\site-packages\\openpyxl\\drawing\\__init__.py',
   'PYMODULE'),
  ('openpyxl.drawing.drawing',
   'c:\\users\\viditk\\appdata\\local\\programs\\python\\python39\\lib\\site-packages\\openpyxl\\drawing\\drawing.py',
   'PYMODULE'),
  ('openpyxl.drawing.geometry',
   'c:\\users\\viditk\\appdata\\local\\programs\\python\\python39\\lib\\site-packages\\openpyxl\\drawing\\geometry.py',
   'PYMODULE'),
  ('openpyxl.drawing.line',
   'c:\\users\\viditk\\appdata\\local\\programs\\python\\python39\\lib\\site-packages\\openpyxl\\drawing\\line.py',
   'PYMODULE'),
  ('openpyxl.drawing.fill',
   'c:\\users\\viditk\\appdata\\local\\programs\\python\\python39\\lib\\site-packages\\openpyxl\\drawing\\fill.py',
   'PYMODULE'),
  ('openpyxl.drawing.effect',
   'c:\\users\\viditk\\appdata\\local\\programs\\python\\python39\\lib\\site-packages\\openpyxl\\drawing\\effect.py',
   'PYMODULE'),
  ('openpyxl.drawing.colors',
   'c:\\users\\viditk\\appdata\\local\\programs\\python\\python39\\lib\\site-packages\\openpyxl\\drawing\\colors.py',
   'PYMODULE'),
  ('openpyxl.chart.marker',
   'c:\\users\\viditk\\appdata\\local\\programs\\python\\python39\\lib\\site-packages\\openpyxl\\chart\\marker.py',
   'PYMODULE'),
  ('openpyxl.chart.picture',
   'c:\\users\\viditk\\appdata\\local\\programs\\python\\python39\\lib\\site-packages\\openpyxl\\chart\\picture.py',
   'PYMODULE'),
  ('openpyxl.chart.label',
   'c:\\users\\viditk\\appdata\\local\\programs\\python\\python39\\lib\\site-packages\\openpyxl\\chart\\label.py',
   'PYMODULE'),
  ('openpyxl.chart.error_bar',
   'c:\\users\\viditk\\appdata\\local\\programs\\python\\python39\\lib\\site-packages\\openpyxl\\chart\\error_bar.py',
   'PYMODULE'),
  ('openpyxl.chart.shapes',
   'c:\\users\\viditk\\appdata\\local\\programs\\python\\python39\\lib\\site-packages\\openpyxl\\chart\\shapes.py',
   'PYMODULE'),
  ('openpyxl.chart.data_source',
   'c:\\users\\viditk\\appdata\\local\\programs\\python\\python39\\lib\\site-packages\\openpyxl\\chart\\data_source.py',
   'PYMODULE'),
  ('openpyxl.chart.surface_chart',
   'c:\\users\\viditk\\appdata\\local\\programs\\python\\python39\\lib\\site-packages\\openpyxl\\chart\\surface_chart.py',
   'PYMODULE'),
  ('openpyxl.chart.axis',
   'c:\\users\\viditk\\appdata\\local\\programs\\python\\python39\\lib\\site-packages\\openpyxl\\chart\\axis.py',
   'PYMODULE'),
  ('openpyxl.chart.title',
   'c:\\users\\viditk\\appdata\\local\\programs\\python\\python39\\lib\\site-packages\\openpyxl\\chart\\title.py',
   'PYMODULE'),
  ('openpyxl.chart.descriptors',
   'c:\\users\\viditk\\appdata\\local\\programs\\python\\python39\\lib\\site-packages\\openpyxl\\chart\\descriptors.py',
   'PYMODULE'),
  ('openpyxl.chart._3d',
   'c:\\users\\viditk\\appdata\\local\\programs\\python\\python39\\lib\\site-packages\\openpyxl\\chart\\_3d.py',
   'PYMODULE'),
  ('openpyxl.chart._chart',
   'c:\\users\\viditk\\appdata\\local\\programs\\python\\python39\\lib\\site-packages\\openpyxl\\chart\\_chart.py',
   'PYMODULE'),
  ('openpyxl.chart.legend',
   'c:\\users\\viditk\\appdata\\local\\programs\\python\\python39\\lib\\site-packages\\openpyxl\\chart\\legend.py',
   'PYMODULE'),
  ('openpyxl.chart.stock_chart',
   'c:\\users\\viditk\\appdata\\local\\programs\\python\\python39\\lib\\site-packages\\openpyxl\\chart\\stock_chart.py',
   'PYMODULE'),
  ('openpyxl.chart.updown_bars',
   'c:\\users\\viditk\\appdata\\local\\programs\\python\\python39\\lib\\site-packages\\openpyxl\\chart\\updown_bars.py',
   'PYMODULE'),
  ('openpyxl.chart.scatter_chart',
   'c:\\users\\viditk\\appdata\\local\\programs\\python\\python39\\lib\\site-packages\\openpyxl\\chart\\scatter_chart.py',
   'PYMODULE'),
  ('openpyxl.chart.radar_chart',
   'c:\\users\\viditk\\appdata\\local\\programs\\python\\python39\\lib\\site-packages\\openpyxl\\chart\\radar_chart.py',
   'PYMODULE'),
  ('openpyxl.chart.pie_chart',
   'c:\\users\\viditk\\appdata\\local\\programs\\python\\python39\\lib\\site-packages\\openpyxl\\chart\\pie_chart.py',
   'PYMODULE'),
  ('openpyxl.chart.line_chart',
   'c:\\users\\viditk\\appdata\\local\\programs\\python\\python39\\lib\\site-packages\\openpyxl\\chart\\line_chart.py',
   'PYMODULE'),
  ('openpyxl.chart.bubble_chart',
   'c:\\users\\viditk\\appdata\\local\\programs\\python\\python39\\lib\\site-packages\\openpyxl\\chart\\bubble_chart.py',
   'PYMODULE'),
  ('openpyxl.chart.bar_chart',
   'c:\\users\\viditk\\appdata\\local\\programs\\python\\python39\\lib\\site-packages\\openpyxl\\chart\\bar_chart.py',
   'PYMODULE'),
  ('openpyxl.chart.area_chart',
   'c:\\users\\viditk\\appdata\\local\\programs\\python\\python39\\lib\\site-packages\\openpyxl\\chart\\area_chart.py',
   'PYMODULE'),
  ('openpyxl.chart.chartspace',
   'c:\\users\\viditk\\appdata\\local\\programs\\python\\python39\\lib\\site-packages\\openpyxl\\chart\\chartspace.py',
   'PYMODULE'),
  ('openpyxl.chart.print_settings',
   'c:\\users\\viditk\\appdata\\local\\programs\\python\\python39\\lib\\site-packages\\openpyxl\\chart\\print_settings.py',
   'PYMODULE'),
  ('openpyxl.chart.pivot',
   'c:\\users\\viditk\\appdata\\local\\programs\\python\\python39\\lib\\site-packages\\openpyxl\\chart\\pivot.py',
   'PYMODULE'),
  ('openpyxl.chart.plotarea',
   'c:\\users\\viditk\\appdata\\local\\programs\\python\\python39\\lib\\site-packages\\openpyxl\\chart\\plotarea.py',
   'PYMODULE'),
  ('openpyxl.drawing.image',
   'c:\\users\\viditk\\appdata\\local\\programs\\python\\python39\\lib\\site-packages\\openpyxl\\drawing\\image.py',
   'PYMODULE'),
  ('openpyxl.xml.functions',
   'c:\\users\\viditk\\appdata\\local\\programs\\python\\python39\\lib\\site-packages\\openpyxl\\xml\\functions.py',
   'PYMODULE'),
  ('et_xmlfile.xmlfile',
   'c:\\users\\viditk\\appdata\\local\\programs\\python\\python39\\lib\\site-packages\\et_xmlfile\\xmlfile.py',
   'PYMODULE'),
  ('et_xmlfile',
   'c:\\users\\viditk\\appdata\\local\\programs\\python\\python39\\lib\\site-packages\\et_xmlfile\\__init__.py',
   'PYMODULE'),
  ('xml.etree.ElementTree',
   'c:\\users\\viditk\\appdata\\local\\programs\\python\\python39\\lib\\xml\\etree\\ElementTree.py',
   'PYMODULE'),
  ('xml.etree.cElementTree',
   'c:\\users\\viditk\\appdata\\local\\programs\\python\\python39\\lib\\xml\\etree\\cElementTree.py',
   'PYMODULE'),
  ('xml.etree.ElementInclude',
   'c:\\users\\viditk\\appdata\\local\\programs\\python\\python39\\lib\\xml\\etree\\ElementInclude.py',
   'PYMODULE'),
  ('xml.etree.ElementPath',
   'c:\\users\\viditk\\appdata\\local\\programs\\python\\python39\\lib\\xml\\etree\\ElementPath.py',
   'PYMODULE'),
  ('xml.etree',
   'c:\\users\\viditk\\appdata\\local\\programs\\python\\python39\\lib\\xml\\etree\\__init__.py',
   'PYMODULE'),
  ('openpyxl.drawing.spreadsheet_drawing',
   'c:\\users\\viditk\\appdata\\local\\programs\\python\\python39\\lib\\site-packages\\openpyxl\\drawing\\spreadsheet_drawing.py',
   'PYMODULE'),
  ('openpyxl.drawing.relation',
   'c:\\users\\viditk\\appdata\\local\\programs\\python\\python39\\lib\\site-packages\\openpyxl\\drawing\\relation.py',
   'PYMODULE'),
  ('openpyxl.drawing.picture',
   'c:\\users\\viditk\\appdata\\local\\programs\\python\\python39\\lib\\site-packages\\openpyxl\\drawing\\picture.py',
   'PYMODULE'),
  ('openpyxl.drawing.properties',
   'c:\\users\\viditk\\appdata\\local\\programs\\python\\python39\\lib\\site-packages\\openpyxl\\drawing\\properties.py',
   'PYMODULE'),
  ('openpyxl.drawing.graphic',
   'c:\\users\\viditk\\appdata\\local\\programs\\python\\python39\\lib\\site-packages\\openpyxl\\drawing\\graphic.py',
   'PYMODULE'),
  ('openpyxl.drawing.connector',
   'c:\\users\\viditk\\appdata\\local\\programs\\python\\python39\\lib\\site-packages\\openpyxl\\drawing\\connector.py',
   'PYMODULE'),
  ('openpyxl.drawing.xdr',
   'c:\\users\\viditk\\appdata\\local\\programs\\python\\python39\\lib\\site-packages\\openpyxl\\drawing\\xdr.py',
   'PYMODULE'),
  ('openpyxl.worksheet.table',
   'c:\\users\\viditk\\appdata\\local\\programs\\python\\python39\\lib\\site-packages\\openpyxl\\worksheet\\table.py',
   'PYMODULE'),
  ('openpyxl.worksheet.related',
   'c:\\users\\viditk\\appdata\\local\\programs\\python\\python39\\lib\\site-packages\\openpyxl\\worksheet\\related.py',
   'PYMODULE'),
  ('openpyxl.chartsheet',
   'c:\\users\\viditk\\appdata\\local\\programs\\python\\python39\\lib\\site-packages\\openpyxl\\chartsheet\\__init__.py',
   'PYMODULE'),
  ('openpyxl.chartsheet.chartsheet',
   'c:\\users\\viditk\\appdata\\local\\programs\\python\\python39\\lib\\site-packages\\openpyxl\\chartsheet\\chartsheet.py',
   'PYMODULE'),
  ('openpyxl.chartsheet.publish',
   'c:\\users\\viditk\\appdata\\local\\programs\\python\\python39\\lib\\site-packages\\openpyxl\\chartsheet\\publish.py',
   'PYMODULE'),
  ('openpyxl.chartsheet.custom',
   'c:\\users\\viditk\\appdata\\local\\programs\\python\\python39\\lib\\site-packages\\openpyxl\\chartsheet\\custom.py',
   'PYMODULE'),
  ('openpyxl.chartsheet.views',
   'c:\\users\\viditk\\appdata\\local\\programs\\python\\python39\\lib\\site-packages\\openpyxl\\chartsheet\\views.py',
   'PYMODULE'),
  ('openpyxl.chartsheet.protection',
   'c:\\users\\viditk\\appdata\\local\\programs\\python\\python39\\lib\\site-packages\\openpyxl\\chartsheet\\protection.py',
   'PYMODULE'),
  ('openpyxl.chartsheet.properties',
   'c:\\users\\viditk\\appdata\\local\\programs\\python\\python39\\lib\\site-packages\\openpyxl\\chartsheet\\properties.py',
   'PYMODULE'),
  ('openpyxl.chartsheet.relation',
   'c:\\users\\viditk\\appdata\\local\\programs\\python\\python39\\lib\\site-packages\\openpyxl\\chartsheet\\relation.py',
   'PYMODULE'),
  ('openpyxl.worksheet.drawing',
   'c:\\users\\viditk\\appdata\\local\\programs\\python\\python39\\lib\\site-packages\\openpyxl\\worksheet\\drawing.py',
   'PYMODULE'),
  ('openpyxl.worksheet._reader',
   'c:\\users\\viditk\\appdata\\local\\programs\\python\\python39\\lib\\site-packages\\openpyxl\\worksheet\\_reader.py',
   'PYMODULE'),
  ('openpyxl.cell.text',
   'c:\\users\\viditk\\appdata\\local\\programs\\python\\python39\\lib\\site-packages\\openpyxl\\cell\\text.py',
   'PYMODULE'),
  ('openpyxl.worksheet._read_only',
   'c:\\users\\viditk\\appdata\\local\\programs\\python\\python39\\lib\\site-packages\\openpyxl\\worksheet\\_read_only.py',
   'PYMODULE'),
  ('openpyxl.cell.read_only',
   'c:\\users\\viditk\\appdata\\local\\programs\\python\\python39\\lib\\site-packages\\openpyxl\\cell\\read_only.py',
   'PYMODULE'),
  ('openpyxl.packaging.relationship',
   'c:\\users\\viditk\\appdata\\local\\programs\\python\\python39\\lib\\site-packages\\openpyxl\\packaging\\relationship.py',
   'PYMODULE'),
  ('openpyxl.packaging',
   'c:\\users\\viditk\\appdata\\local\\programs\\python\\python39\\lib\\site-packages\\openpyxl\\packaging\\__init__.py',
   'PYMODULE'),
  ('openpyxl.packaging.manifest',
   'c:\\users\\viditk\\appdata\\local\\programs\\python\\python39\\lib\\site-packages\\openpyxl\\packaging\\manifest.py',
   'PYMODULE'),
  ('openpyxl.packaging.core',
   'c:\\users\\viditk\\appdata\\local\\programs\\python\\python39\\lib\\site-packages\\openpyxl\\packaging\\core.py',
   'PYMODULE'),
  ('openpyxl.styles.stylesheet',
   'c:\\users\\viditk\\appdata\\local\\programs\\python\\python39\\lib\\site-packages\\openpyxl\\styles\\stylesheet.py',
   'PYMODULE'),
  ('openpyxl.styles.table',
   'c:\\users\\viditk\\appdata\\local\\programs\\python\\python39\\lib\\site-packages\\openpyxl\\styles\\table.py',
   'PYMODULE'),
  ('openpyxl.reader.workbook',
   'c:\\users\\viditk\\appdata\\local\\programs\\python\\python39\\lib\\site-packages\\openpyxl\\reader\\workbook.py',
   'PYMODULE'),
  ('openpyxl.pivot.record',
   'c:\\users\\viditk\\appdata\\local\\programs\\python\\python39\\lib\\site-packages\\openpyxl\\pivot\\record.py',
   'PYMODULE'),
  ('openpyxl.pivot',
   'c:\\users\\viditk\\appdata\\local\\programs\\python\\python39\\lib\\site-packages\\openpyxl\\pivot\\__init__.py',
   'PYMODULE'),
  ('openpyxl.pivot.fields',
   'c:\\users\\viditk\\appdata\\local\\programs\\python\\python39\\lib\\site-packages\\openpyxl\\pivot\\fields.py',
   'PYMODULE'),
  ('openpyxl.pivot.cache',
   'c:\\users\\viditk\\appdata\\local\\programs\\python\\python39\\lib\\site-packages\\openpyxl\\pivot\\cache.py',
   'PYMODULE'),
  ('openpyxl.workbook.external_link.external',
   'c:\\users\\viditk\\appdata\\local\\programs\\python\\python39\\lib\\site-packages\\openpyxl\\workbook\\external_link\\external.py',
   'PYMODULE'),
  ('openpyxl.workbook.external_link',
   'c:\\users\\viditk\\appdata\\local\\programs\\python\\python39\\lib\\site-packages\\openpyxl\\workbook\\external_link\\__init__.py',
   'PYMODULE'),
  ('openpyxl.packaging.workbook',
   'c:\\users\\viditk\\appdata\\local\\programs\\python\\python39\\lib\\site-packages\\openpyxl\\packaging\\workbook.py',
   'PYMODULE'),
  ('openpyxl.workbook.web',
   'c:\\users\\viditk\\appdata\\local\\programs\\python\\python39\\lib\\site-packages\\openpyxl\\workbook\\web.py',
   'PYMODULE'),
  ('openpyxl.workbook.views',
   'c:\\users\\viditk\\appdata\\local\\programs\\python\\python39\\lib\\site-packages\\openpyxl\\workbook\\views.py',
   'PYMODULE'),
  ('openpyxl.workbook.smart_tags',
   'c:\\users\\viditk\\appdata\\local\\programs\\python\\python39\\lib\\site-packages\\openpyxl\\workbook\\smart_tags.py',
   'PYMODULE'),
  ('openpyxl.workbook.protection',
   'c:\\users\\viditk\\appdata\\local\\programs\\python\\python39\\lib\\site-packages\\openpyxl\\workbook\\protection.py',
   'PYMODULE'),
  ('openpyxl.workbook.properties',
   'c:\\users\\viditk\\appdata\\local\\programs\\python\\python39\\lib\\site-packages\\openpyxl\\workbook\\properties.py',
   'PYMODULE'),
  ('openpyxl.workbook.function_group',
   'c:\\users\\viditk\\appdata\\local\\programs\\python\\python39\\lib\\site-packages\\openpyxl\\workbook\\function_group.py',
   'PYMODULE'),
  ('openpyxl.workbook.external_reference',
   'c:\\users\\viditk\\appdata\\local\\programs\\python\\python39\\lib\\site-packages\\openpyxl\\workbook\\external_reference.py',
   'PYMODULE'),
  ('openpyxl.reader.strings',
   'c:\\users\\viditk\\appdata\\local\\programs\\python\\python39\\lib\\site-packages\\openpyxl\\reader\\strings.py',
   'PYMODULE'),
  ('openpyxl.comments.comment_sheet',
   'c:\\users\\viditk\\appdata\\local\\programs\\python\\python39\\lib\\site-packages\\openpyxl\\comments\\comment_sheet.py',
   'PYMODULE'),
  ('openpyxl.comments',
   'c:\\users\\viditk\\appdata\\local\\programs\\python\\python39\\lib\\site-packages\\openpyxl\\comments\\__init__.py',
   'PYMODULE'),
  ('openpyxl.comments.shape_writer',
   'c:\\users\\viditk\\appdata\\local\\programs\\python\\python39\\lib\\site-packages\\openpyxl\\comments\\shape_writer.py',
   'PYMODULE'),
  ('openpyxl.comments.comments',
   'c:\\users\\viditk\\appdata\\local\\programs\\python\\python39\\lib\\site-packages\\openpyxl\\comments\\comments.py',
   'PYMODULE'),
  ('openpyxl.comments.author',
   'c:\\users\\viditk\\appdata\\local\\programs\\python\\python39\\lib\\site-packages\\openpyxl\\comments\\author.py',
   'PYMODULE'),
  ('openpyxl.cell',
   'c:\\users\\viditk\\appdata\\local\\programs\\python\\python39\\lib\\site-packages\\openpyxl\\cell\\__init__.py',
   'PYMODULE'),
  ('openpyxl.xml.constants',
   'c:\\users\\viditk\\appdata\\local\\programs\\python\\python39\\lib\\site-packages\\openpyxl\\xml\\constants.py',
   'PYMODULE'),
  ('openpyxl.utils.exceptions',
   'c:\\users\\viditk\\appdata\\local\\programs\\python\\python39\\lib\\site-packages\\openpyxl\\utils\\exceptions.py',
   'PYMODULE'),
  ('openpyxl.pivot.table',
   'c:\\users\\viditk\\appdata\\local\\programs\\python\\python39\\lib\\site-packages\\openpyxl\\pivot\\table.py',
   'PYMODULE'),
  ('openpyxl.workbook',
   'c:\\users\\viditk\\appdata\\local\\programs\\python\\python39\\lib\\site-packages\\openpyxl\\workbook\\__init__.py',
   'PYMODULE'),
  ('openpyxl.workbook.workbook',
   'c:\\users\\viditk\\appdata\\local\\programs\\python\\python39\\lib\\site-packages\\openpyxl\\workbook\\workbook.py',
   'PYMODULE'),
  ('openpyxl.writer.excel',
   'c:\\users\\viditk\\appdata\\local\\programs\\python\\python39\\lib\\site-packages\\openpyxl\\writer\\excel.py',
   'PYMODULE'),
  ('openpyxl.writer',
   'c:\\users\\viditk\\appdata\\local\\programs\\python\\python39\\lib\\site-packages\\openpyxl\\writer\\__init__.py',
   'PYMODULE'),
  ('openpyxl.writer.theme',
   'c:\\users\\viditk\\appdata\\local\\programs\\python\\python39\\lib\\site-packages\\openpyxl\\writer\\theme.py',
   'PYMODULE'),
  ('openpyxl.workbook._writer',
   'c:\\users\\viditk\\appdata\\local\\programs\\python\\python39\\lib\\site-packages\\openpyxl\\workbook\\_writer.py',
   'PYMODULE'),
  ('openpyxl.worksheet._writer',
   'c:\\users\\viditk\\appdata\\local\\programs\\python\\python39\\lib\\site-packages\\openpyxl\\worksheet\\_writer.py',
   'PYMODULE'),
  ('openpyxl.cell._writer',
   'c:\\users\\viditk\\appdata\\local\\programs\\python\\python39\\lib\\site-packages\\openpyxl\\cell\\_writer.py',
   'PYMODULE'),
  ('openpyxl.packaging.extended',
   'c:\\users\\viditk\\appdata\\local\\programs\\python\\python39\\lib\\site-packages\\openpyxl\\packaging\\extended.py',
   'PYMODULE'),
  ('openpyxl.worksheet.copier',
   'c:\\users\\viditk\\appdata\\local\\programs\\python\\python39\\lib\\site-packages\\openpyxl\\worksheet\\copier.py',
   'PYMODULE'),
  ('openpyxl.worksheet._write_only',
   'c:\\users\\viditk\\appdata\\local\\programs\\python\\python39\\lib\\site-packages\\openpyxl\\worksheet\\_write_only.py',
   'PYMODULE'),
  ('openpyxl.xml',
   'c:\\users\\viditk\\appdata\\local\\programs\\python\\python39\\lib\\site-packages\\openpyxl\\xml\\__init__.py',
   'PYMODULE'),
  ('openpyxl.compat.numbers',
   'c:\\users\\viditk\\appdata\\local\\programs\\python\\python39\\lib\\site-packages\\openpyxl\\compat\\numbers.py',
   'PYMODULE')],
 [('VCRUNTIME140.dll',
   'c:\\users\\viditk\\appdata\\local\\programs\\python\\python39\\VCRUNTIME140.dll',
   'BINARY'),
  ('python39.dll',
   'c:\\users\\viditk\\appdata\\local\\programs\\python\\python39\\python39.dll',
   'BINARY'),
  ('PyQt5\\Qt\\plugins\\platformthemes\\qxdgdesktopportal.dll',
   'C:\\users\\viditk\\appdata\\local\\programs\\python\\python39\\lib\\site-packages\\PyQt5\\Qt5\\plugins\\platformthemes\\qxdgdesktopportal.dll',
   'BINARY'),
  ('PyQt5\\Qt\\plugins\\platforms\\qwindows.dll',
   'C:\\users\\viditk\\appdata\\local\\programs\\python\\python39\\lib\\site-packages\\PyQt5\\Qt5\\plugins\\platforms\\qwindows.dll',
   'BINARY'),
  ('PyQt5\\Qt\\plugins\\imageformats\\qico.dll',
   'C:\\users\\viditk\\appdata\\local\\programs\\python\\python39\\lib\\site-packages\\PyQt5\\Qt5\\plugins\\imageformats\\qico.dll',
   'BINARY'),
  ('PyQt5\\Qt\\plugins\\imageformats\\qwebp.dll',
   'C:\\users\\viditk\\appdata\\local\\programs\\python\\python39\\lib\\site-packages\\PyQt5\\Qt5\\plugins\\imageformats\\qwebp.dll',
   'BINARY'),
  ('PyQt5\\Qt\\plugins\\platforms\\qwebgl.dll',
   'C:\\users\\viditk\\appdata\\local\\programs\\python\\python39\\lib\\site-packages\\PyQt5\\Qt5\\plugins\\platforms\\qwebgl.dll',
   'BINARY'),
  ('PyQt5\\Qt\\plugins\\imageformats\\qicns.dll',
   'C:\\users\\viditk\\appdata\\local\\programs\\python\\python39\\lib\\site-packages\\PyQt5\\Qt5\\plugins\\imageformats\\qicns.dll',
   'BINARY'),
  ('libEGL.dll',
   'C:\\users\\viditk\\appdata\\local\\programs\\python\\python39\\lib\\site-packages\\PyQt5\\Qt5\\bin\\libEGL.dll',
   'BINARY'),
  ('PyQt5\\Qt\\plugins\\platforms\\qoffscreen.dll',
   'C:\\users\\viditk\\appdata\\local\\programs\\python\\python39\\lib\\site-packages\\PyQt5\\Qt5\\plugins\\platforms\\qoffscreen.dll',
   'BINARY'),
  ('PyQt5\\Qt\\plugins\\imageformats\\qtiff.dll',
   'C:\\users\\viditk\\appdata\\local\\programs\\python\\python39\\lib\\site-packages\\PyQt5\\Qt5\\plugins\\imageformats\\qtiff.dll',
   'BINARY'),
  ('PyQt5\\Qt\\plugins\\platforms\\qminimal.dll',
   'C:\\users\\viditk\\appdata\\local\\programs\\python\\python39\\lib\\site-packages\\PyQt5\\Qt5\\plugins\\platforms\\qminimal.dll',
   'BINARY'),
  ('PyQt5\\Qt\\plugins\\imageformats\\qwbmp.dll',
   'C:\\users\\viditk\\appdata\\local\\programs\\python\\python39\\lib\\site-packages\\PyQt5\\Qt5\\plugins\\imageformats\\qwbmp.dll',
   'BINARY'),
  ('libGLESv2.dll',
   'C:\\users\\viditk\\appdata\\local\\programs\\python\\python39\\lib\\site-packages\\PyQt5\\Qt5\\bin\\libGLESv2.dll',
   'BINARY'),
  ('PyQt5\\Qt\\plugins\\iconengines\\qsvgicon.dll',
   'C:\\users\\viditk\\appdata\\local\\programs\\python\\python39\\lib\\site-packages\\PyQt5\\Qt5\\plugins\\iconengines\\qsvgicon.dll',
   'BINARY'),
  ('opengl32sw.dll',
   'C:\\users\\viditk\\appdata\\local\\programs\\python\\python39\\lib\\site-packages\\PyQt5\\Qt5\\bin\\opengl32sw.dll',
   'BINARY'),
  ('PyQt5\\Qt\\plugins\\imageformats\\qjpeg.dll',
   'C:\\users\\viditk\\appdata\\local\\programs\\python\\python39\\lib\\site-packages\\PyQt5\\Qt5\\plugins\\imageformats\\qjpeg.dll',
   'BINARY'),
  ('PyQt5\\Qt\\plugins\\imageformats\\qgif.dll',
   'C:\\users\\viditk\\appdata\\local\\programs\\python\\python39\\lib\\site-packages\\PyQt5\\Qt5\\plugins\\imageformats\\qgif.dll',
   'BINARY'),
  ('d3dcompiler_47.dll',
   'C:\\users\\viditk\\appdata\\local\\programs\\python\\python39\\lib\\site-packages\\PyQt5\\Qt5\\bin\\d3dcompiler_47.dll',
   'BINARY'),
  ('PyQt5\\Qt\\plugins\\imageformats\\qsvg.dll',
   'C:\\users\\viditk\\appdata\\local\\programs\\python\\python39\\lib\\site-packages\\PyQt5\\Qt5\\plugins\\imageformats\\qsvg.dll',
   'BINARY'),
  ('PyQt5\\Qt\\plugins\\imageformats\\qtga.dll',
   'C:\\users\\viditk\\appdata\\local\\programs\\python\\python39\\lib\\site-packages\\PyQt5\\Qt5\\plugins\\imageformats\\qtga.dll',
   'BINARY'),
  ('PyQt5\\Qt\\plugins\\styles\\qwindowsvistastyle.dll',
   'C:\\users\\viditk\\appdata\\local\\programs\\python\\python39\\lib\\site-packages\\PyQt5\\Qt5\\plugins\\styles\\qwindowsvistastyle.dll',
   'BINARY'),
  ('select',
   'c:\\users\\viditk\\appdata\\local\\programs\\python\\python39\\DLLs\\select.pyd',
   'EXTENSION'),
  ('unicodedata',
   'c:\\users\\viditk\\appdata\\local\\programs\\python\\python39\\DLLs\\unicodedata.pyd',
   'EXTENSION'),
  ('_socket',
   'c:\\users\\viditk\\appdata\\local\\programs\\python\\python39\\DLLs\\_socket.pyd',
   'EXTENSION'),
  ('_decimal',
   'c:\\users\\viditk\\appdata\\local\\programs\\python\\python39\\DLLs\\_decimal.pyd',
   'EXTENSION'),
  ('_overlapped',
   'c:\\users\\viditk\\appdata\\local\\programs\\python\\python39\\DLLs\\_overlapped.pyd',
   'EXTENSION'),
  ('_ssl',
   'c:\\users\\viditk\\appdata\\local\\programs\\python\\python39\\DLLs\\_ssl.pyd',
   'EXTENSION'),
  ('_asyncio',
   'c:\\users\\viditk\\appdata\\local\\programs\\python\\python39\\DLLs\\_asyncio.pyd',
   'EXTENSION'),
  ('_queue',
   'c:\\users\\viditk\\appdata\\local\\programs\\python\\python39\\DLLs\\_queue.pyd',
   'EXTENSION'),
  ('_ctypes',
   'c:\\users\\viditk\\appdata\\local\\programs\\python\\python39\\DLLs\\_ctypes.pyd',
   'EXTENSION'),
  ('_multiprocessing',
   'c:\\users\\viditk\\appdata\\local\\programs\\python\\python39\\DLLs\\_multiprocessing.pyd',
   'EXTENSION'),
  ('pyexpat',
   'c:\\users\\viditk\\appdata\\local\\programs\\python\\python39\\DLLs\\pyexpat.pyd',
   'EXTENSION'),
  ('_hashlib',
   'c:\\users\\viditk\\appdata\\local\\programs\\python\\python39\\DLLs\\_hashlib.pyd',
   'EXTENSION'),
  ('_lzma',
   'c:\\users\\viditk\\appdata\\local\\programs\\python\\python39\\DLLs\\_lzma.pyd',
   'EXTENSION'),
  ('_bz2',
   'c:\\users\\viditk\\appdata\\local\\programs\\python\\python39\\DLLs\\_bz2.pyd',
   'EXTENSION'),
  ('PyQt5.QtGui',
   'c:\\users\\viditk\\appdata\\local\\programs\\python\\python39\\lib\\site-packages\\PyQt5\\QtGui.pyd',
   'EXTENSION'),
  ('PyQt5.QtWidgets',
   'c:\\users\\viditk\\appdata\\local\\programs\\python\\python39\\lib\\site-packages\\PyQt5\\QtWidgets.pyd',
   'EXTENSION'),
  ('PyQt5.QtCore',
   'c:\\users\\viditk\\appdata\\local\\programs\\python\\python39\\lib\\site-packages\\PyQt5\\QtCore.pyd',
   'EXTENSION'),
  ('PyQt5.sip',
   'c:\\users\\viditk\\appdata\\local\\programs\\python\\python39\\lib\\site-packages\\PyQt5\\sip.cp39-win_amd64.pyd',
   'EXTENSION'),
  ('_elementtree',
   'c:\\users\\viditk\\appdata\\local\\programs\\python\\python39\\DLLs\\_elementtree.pyd',
   'EXTENSION'),
  ('Qt5Core.dll',
   'c:\\users\\viditk\\appdata\\local\\programs\\python\\python39\\lib\\site-packages\\PyQt5\\Qt5\\bin\\Qt5Core.dll',
   'BINARY'),
  ('Qt5Gui.dll',
   'c:\\users\\viditk\\appdata\\local\\programs\\python\\python39\\lib\\site-packages\\PyQt5\\Qt5\\bin\\Qt5Gui.dll',
   'BINARY'),
  ('Qt5DBus.dll',
   'c:\\users\\viditk\\appdata\\local\\programs\\python\\python39\\lib\\site-packages\\PyQt5\\Qt5\\bin\\Qt5DBus.dll',
   'BINARY'),
  ('VCRUNTIME140_1.dll',
   'C:\\Users\\ViditK\\AppData\\Local\\Programs\\Python\\Python39\\VCRUNTIME140_1.dll',
   'BINARY'),
  ('Qt5WebSockets.dll',
   'c:\\users\\viditk\\appdata\\local\\programs\\python\\python39\\lib\\site-packages\\PyQt5\\Qt5\\bin\\Qt5WebSockets.dll',
   'BINARY'),
  ('Qt5Network.dll',
   'c:\\users\\viditk\\appdata\\local\\programs\\python\\python39\\lib\\site-packages\\PyQt5\\Qt5\\bin\\Qt5Network.dll',
   'BINARY'),
  ('Qt5Quick.dll',
   'c:\\users\\viditk\\appdata\\local\\programs\\python\\python39\\lib\\site-packages\\PyQt5\\Qt5\\bin\\Qt5Quick.dll',
   'BINARY'),
  ('MSVCP140.dll',
   'C:\\users\\viditk\\appdata\\local\\programs\\python\\python39\\lib\\site-packages\\PyQt5\\Qt5\\bin\\MSVCP140.dll',
   'BINARY'),
  ('Qt5Svg.dll',
   'c:\\users\\viditk\\appdata\\local\\programs\\python\\python39\\lib\\site-packages\\PyQt5\\Qt5\\bin\\Qt5Svg.dll',
   'BINARY'),
  ('Qt5Widgets.dll',
   'c:\\users\\viditk\\appdata\\local\\programs\\python\\python39\\lib\\site-packages\\PyQt5\\Qt5\\bin\\Qt5Widgets.dll',
   'BINARY'),
  ('libssl-1_1.dll',
   'c:\\users\\viditk\\appdata\\local\\programs\\python\\python39\\DLLs\\libssl-1_1.dll',
   'BINARY'),
  ('libcrypto-1_1.dll',
   'c:\\users\\viditk\\appdata\\local\\programs\\python\\python39\\DLLs\\libcrypto-1_1.dll',
   'BINARY'),
  ('libffi-7.dll',
   'c:\\users\\viditk\\appdata\\local\\programs\\python\\python39\\DLLs\\libffi-7.dll',
   'BINARY'),
  ('python3.dll',
   'C:\\Users\\ViditK\\AppData\\Local\\Programs\\Python\\Python39\\python3.dll',
   'BINARY'),
  ('MSVCP140_1.dll',
   'c:\\users\\viditk\\appdata\\local\\programs\\python\\python39\\lib\\site-packages\\PyQt5\\Qt5\\bin\\MSVCP140_1.dll',
   'BINARY'),
  ('Qt5QmlModels.dll',
   'c:\\users\\viditk\\appdata\\local\\programs\\python\\python39\\lib\\site-packages\\PyQt5\\Qt5\\bin\\Qt5QmlModels.dll',
   'BINARY'),
  ('Qt5Qml.dll',
   'c:\\users\\viditk\\appdata\\local\\programs\\python\\python39\\lib\\site-packages\\PyQt5\\Qt5\\bin\\Qt5Qml.dll',
   'BINARY')],
 [],
 [],
 [('base_library.zip',
   'D:\\Projects\\bom-combiner\\build\\main_app\\base_library.zip',
   'DATA'),
  ('PyQt5\\Qt\\translations\\qtbase_ru.qm',
   'C:\\users\\viditk\\appdata\\local\\programs\\python\\python39\\lib\\site-packages\\PyQt5\\Qt5\\translations\\qtbase_ru.qm',
   'DATA'),
  ('PyQt5\\Qt\\translations\\qtbase_de.qm',
   'C:\\users\\viditk\\appdata\\local\\programs\\python\\python39\\lib\\site-packages\\PyQt5\\Qt5\\translations\\qtbase_de.qm',
   'DATA'),
  ('PyQt5\\Qt\\translations\\qtbase_gd.qm',
   'C:\\users\\viditk\\appdata\\local\\programs\\python\\python39\\lib\\site-packages\\PyQt5\\Qt5\\translations\\qtbase_gd.qm',
   'DATA'),
  ('PyQt5\\Qt\\translations\\qtbase_pl.qm',
   'C:\\users\\viditk\\appdata\\local\\programs\\python\\python39\\lib\\site-packages\\PyQt5\\Qt5\\translations\\qtbase_pl.qm',
   'DATA'),
  ('PyQt5\\Qt\\translations\\qtbase_zh_TW.qm',
   'C:\\users\\viditk\\appdata\\local\\programs\\python\\python39\\lib\\site-packages\\PyQt5\\Qt5\\translations\\qtbase_zh_TW.qm',
   'DATA'),
  ('PyQt5\\Qt\\translations\\qtbase_ja.qm',
   'C:\\users\\viditk\\appdata\\local\\programs\\python\\python39\\lib\\site-packages\\PyQt5\\Qt5\\translations\\qtbase_ja.qm',
   'DATA'),
  ('PyQt5\\Qt\\translations\\qtbase_ar.qm',
   'C:\\users\\viditk\\appdata\\local\\programs\\python\\python39\\lib\\site-packages\\PyQt5\\Qt5\\translations\\qtbase_ar.qm',
   'DATA'),
  ('PyQt5\\Qt\\translations\\qtbase_it.qm',
   'C:\\users\\viditk\\appdata\\local\\programs\\python\\python39\\lib\\site-packages\\PyQt5\\Qt5\\translations\\qtbase_it.qm',
   'DATA'),
  ('PyQt5\\Qt\\translations\\qtbase_tr.qm',
   'C:\\users\\viditk\\appdata\\local\\programs\\python\\python39\\lib\\site-packages\\PyQt5\\Qt5\\translations\\qtbase_tr.qm',
   'DATA'),
  ('PyQt5\\Qt\\translations\\qtbase_fi.qm',
   'C:\\users\\viditk\\appdata\\local\\programs\\python\\python39\\lib\\site-packages\\PyQt5\\Qt5\\translations\\qtbase_fi.qm',
   'DATA'),
  ('PyQt5\\Qt\\translations\\qtbase_es.qm',
   'C:\\users\\viditk\\appdata\\local\\programs\\python\\python39\\lib\\site-packages\\PyQt5\\Qt5\\translations\\qtbase_es.qm',
   'DATA'),
  ('PyQt5\\Qt\\translations\\qtbase_fr.qm',
   'C:\\users\\viditk\\appdata\\local\\programs\\python\\python39\\lib\\site-packages\\PyQt5\\Qt5\\translations\\qtbase_fr.qm',
   'DATA'),
  ('PyQt5\\Qt\\translations\\qtbase_ca.qm',
   'C:\\users\\viditk\\appdata\\local\\programs\\python\\python39\\lib\\site-packages\\PyQt5\\Qt5\\translations\\qtbase_ca.qm',
   'DATA'),
  ('PyQt5\\Qt\\translations\\qtbase_sk.qm',
   'C:\\users\\viditk\\appdata\\local\\programs\\python\\python39\\lib\\site-packages\\PyQt5\\Qt5\\translations\\qtbase_sk.qm',
   'DATA'),
  ('PyQt5\\Qt\\translations\\qtbase_cs.qm',
   'C:\\users\\viditk\\appdata\\local\\programs\\python\\python39\\lib\\site-packages\\PyQt5\\Qt5\\translations\\qtbase_cs.qm',
   'DATA'),
  ('PyQt5\\Qt\\translations\\qtbase_ko.qm',
   'C:\\users\\viditk\\appdata\\local\\programs\\python\\python39\\lib\\site-packages\\PyQt5\\Qt5\\translations\\qtbase_ko.qm',
   'DATA'),
  ('PyQt5\\Qt\\translations\\qtbase_bg.qm',
   'C:\\users\\viditk\\appdata\\local\\programs\\python\\python39\\lib\\site-packages\\PyQt5\\Qt5\\translations\\qtbase_bg.qm',
   'DATA'),
  ('PyQt5\\Qt\\translations\\qtbase_lv.qm',
   'C:\\users\\viditk\\appdata\\local\\programs\\python\\python39\\lib\\site-packages\\PyQt5\\Qt5\\translations\\qtbase_lv.qm',
   'DATA'),
  ('PyQt5\\Qt\\translations\\qtbase_he.qm',
   'C:\\users\\viditk\\appdata\\local\\programs\\python\\python39\\lib\\site-packages\\PyQt5\\Qt5\\translations\\qtbase_he.qm',
   'DATA'),
  ('PyQt5\\Qt\\translations\\qtbase_uk.qm',
   'C:\\users\\viditk\\appdata\\local\\programs\\python\\python39\\lib\\site-packages\\PyQt5\\Qt5\\translations\\qtbase_uk.qm',
   'DATA'),
  ('PyQt5\\Qt\\translations\\qtbase_da.qm',
   'C:\\users\\viditk\\appdata\\local\\programs\\python\\python39\\lib\\site-packages\\PyQt5\\Qt5\\translations\\qtbase_da.qm',
   'DATA'),
  ('PyQt5\\Qt\\translations\\qtbase_en.qm',
   'C:\\users\\viditk\\appdata\\local\\programs\\python\\python39\\lib\\site-packages\\PyQt5\\Qt5\\translations\\qtbase_en.qm',
   'DATA'),
  ('PyQt5\\Qt\\translations\\qtbase_hu.qm',
   'C:\\users\\viditk\\appdata\\local\\programs\\python\\python39\\lib\\site-packages\\PyQt5\\Qt5\\translations\\qtbase_hu.qm',
   'DATA')],
 [])
